{
  "intents": [
    {
      "intent": "hours_info",
      "examples": [
        {
          "text": "what are the hours of operation for your Molina drug"
        },
        {
          "text": "Are you open on Saturdays?"
        },
        {
          "text": "Are you open on Christmas' Day?"
        },
        {
          "text": "When are you open"
        },
        {
          "text": "What days are you closed on?"
        },
        {
          "text": "When do you close"
        },
        {
          "text": "When do you open"
        },
        {
          "text": "What time are you open until?"
        },
        {
          "text": "What are your hours of operation?"
        },
        {
          "text": "What are your hours?"
        },
        {
          "text": "Are you open on Sundays?"
        },
        {
          "text": "what are you hours of operation in Lince"
        }
      ]
    },
    {
      "intent": "location_info",
      "examples": [
        {
          "text": "List of location"
        },
        {
          "text": "do you have a drugstore in Breña"
        },
        {
          "text": "where is your Molina store?"
        },
        {
          "text": "what's the address of your Lince drugs?"
        },
        {
          "text": "What's the address of your Molina drugs?"
        },
        {
          "text": "list of your locations"
        },
        {
          "text": "Where are your stores?"
        },
        {
          "text": "Where are you physically located?"
        },
        {
          "text": "What are your locations?"
        },
        {
          "text": "Give me a list of locations"
        }
      ]
    },
    {
      "intent": "thank_you",
      "examples": [
        {
          "text": "thx"
        },
        {
          "text": "appreciate it"
        },
        {
          "text": "cheers"
        },
        {
          "text": "thank you"
        },
        {
          "text": "thanks"
        }
      ],
      "description": ""
    },
    {
      "intent": "greetings",
      "examples": [
        {
          "text": "kia ora"
        },
        {
          "text": "hi"
        },
        {
          "text": "hello"
        },
        {
          "text": "hey"
        },
        {
          "text": "good morning"
        },
        {
          "text": "good evening"
        }
      ],
      "description": ""
    },
    {
      "intent": "goodbyes",
      "examples": [
        {
          "text": "farewell"
        },
        {
          "text": "talk to you soon"
        },
        {
          "text": "good bye"
        },
        {
          "text": "c ya"
        },
        {
          "text": "see you"
        },
        {
          "text": "bye"
        }
      ],
      "description": ""
    },
    {
      "intent": "drugs_recommendations",
      "examples": [
        {
          "text": "drugs suggestions for headache"
        },
        {
          "text": "drugs suggestions for cough"
        },
        {
          "text": "drugs for flue?"
        },
        {
          "text": "drugs recommendations"
        }
      ],
      "description": ""
    }
  ],
  "entities": [
    {
      "entity": "occasion",
      "values": [
        {
          "type": "synonyms",
          "value": "headache",
          "synonyms": []
        },
        {
          "type": "synonyms",
          "value": "cough",
          "synonyms": [
            "award",
            "success"
          ]
        },
        {
          "type": "synonyms",
          "value": "flu",
          "synonyms": []
        }
      ]
    },
    {
      "entity": "location",
      "values": [
        {
          "type": "synonyms",
          "value": "Surco",
          "synonyms": []
        },
        {
          "type": "synonyms",
          "value": "Lince",
          "synonyms": []
        },
        {
          "type": "synonyms",
          "value": "Molina",
          "synonyms": []
        },
        {
          "type": "synonyms",
          "value": "Breña",
          "synonyms": [
            "Warden Avenue"
          ]
        }
      ],
      "fuzzy_match": true
    },
    {
      "entity": "sys-person",
      "values": []
    },
    {
      "entity": "sys-location",
      "values": []
    }
  ],
  "metadata": {
    "api_version": {
      "major_version": "v2",
      "minor_version": "2018-11-08"
    }
  },
  "dialog_nodes": [
    {
      "type": "standard",
      "title": "Collect Other Names",
      "output": {
        "generic": [
          {
            "values": [
              {
                "text": "Nice to meet you, $name. How can I help you? You can ask me about our drugstore hours, locations, or drugs recommendations."
              }
            ],
            "response_type": "text",
            "selection_policy": "sequential"
          }
        ]
      },
      "parent": "Welcome",
      "context": {
        "name": "<? input.text.substring(0, 1).toUpperCase() + input.text.substring(1) ?>"
      },
      "conditions": "true",
      "dialog_node": "node_3_1553030427224",
      "previous_sibling": "node_5_1553028886613"
    },
    {
      "type": "standard",
      "title": "Collect Sys-Person Name",
      "output": {
        "generic": [
          {
            "values": [
              {
                "text": "Nice to meet you, $name. How can I help you? You can ask me about our drugstore hours, locations, or drugs recommendations."
              }
            ],
            "response_type": "text",
            "selection_policy": "sequential"
          }
        ]
      },
      "parent": "Welcome",
      "context": {
        "name": "@sys-person"
      },
      "conditions": "@sys-person",
      "dialog_node": "node_5_1553028886613"
    },
    {
      "type": "response_condition",
      "title": "response_10_1568495005272",
      "output": {
        "text": {
          "values": [
            "You can take a Panadol. But if you continue with the symtom, go to the doctor",
            "flowers suggestions for my girlfriend"
          ],
          "selection_policy": "sequential"
        }
      },
      "parent": "node_10_1568493963282",
      "conditions": "$occasion:flu",
      "dialog_node": "response_10_1568495005272",
      "previous_sibling": "slot_1_1568504990429"
    },
    {
      "type": "response_condition",
      "title": "response_9_1568495126312",
      "output": {
        "text": {
          "values": [
            "You can take a  Buscapina. But if you continue with the symtom, go to the doctor"
          ],
          "selection_policy": "sequential"
        }
      },
      "parent": "node_10_1568493963282",
      "conditions": "$occasion==\"headache\"",
      "dialog_node": "response_9_1568495126312",
      "previous_sibling": "response_7_1568495072144"
    },
    {
      "type": "slot",
      "title": "slot_1_1568504990429",
      "output": {},
      "parent": "node_10_1568493963282",
      "variable": "$occasion",
      "dialog_node": "slot_1_1568504990429",
      "previous_sibling": "handler_1_1568504896445"
    },
    {
      "type": "response_condition",
      "title": "response_10_1568495248672",
      "output": {
        "text": {
          "values": [
            "I'd recommend a beautiful mixed bouquet"
          ],
          "selection_policy": "sequential"
        }
      },
      "parent": "node_10_1568493963282",
      "conditions": "true",
      "dialog_node": "response_10_1568495248672",
      "previous_sibling": "response_9_1568495126312"
    },
    {
      "type": "response_condition",
      "title": "response_7_1568495072144",
      "output": {
        "text": {
          "values": [
            "You can take a Amoxicilina. But if you continue with the symtom, go to the doctor"
          ],
          "selection_policy": "sequential"
        }
      },
      "parent": "node_10_1568493963282",
      "conditions": "$occasion:cough",
      "dialog_node": "response_7_1568495072144",
      "previous_sibling": "response_10_1568495005272"
    },
    {
      "type": "event_handler",
      "parent": "node_10_1568493963282",
      "disabled": true,
      "event_name": "focus",
      "dialog_node": "handler_1_1568504896445"
    },
    {
      "type": "event_handler",
      "title": "handler_1_1568505192395",
      "output": {
        "text": {
          "values": [
            "sorry ask again, $name, but what occasion are the flower for?"
          ],
          "selection_policy": "sequential"
        }
      },
      "parent": "slot_1_1568504990429",
      "conditions": "@occasion",
      "event_name": "nomatch",
      "dialog_node": "handler_1_1568505192395",
      "previous_sibling": "handler_3_1568505175438"
    },
    {
      "type": "event_handler",
      "title": "handler_1_1568504990452",
      "output": {
        "text": {
          "values": [
            "for what disease?"
          ],
          "selection_policy": "sequential"
        }
      },
      "parent": "slot_1_1568504990429",
      "event_name": "focus",
      "dialog_node": "handler_1_1568504990452",
      "previous_sibling": "handler_3_1568504990452"
    },
    {
      "type": "event_handler",
      "title": "handler_3_1568505175438",
      "output": {
        "text": {
          "values": [
            "thanks, $name"
          ],
          "selection_policy": "sequential"
        }
      },
      "parent": "slot_1_1568504990429",
      "conditions": "@occasion",
      "event_name": "filled",
      "dialog_node": "handler_3_1568505175438",
      "previous_sibling": "handler_1_1568504990452"
    },
    {
      "type": "event_handler",
      "title": "handler_3_1568504990452",
      "output": {},
      "parent": "slot_1_1568504990429",
      "context": {
        "occasion": "@occasion"
      },
      "conditions": "@occasion",
      "event_name": "input",
      "dialog_node": "handler_3_1568504990452"
    },
    {
      "type": "standard",
      "title": "Goodbyes",
      "output": {
        "generic": [
          {
            "values": [
              {
                "text": "Nice talking to you today, $name. We hope you visit our $city drugstore."
              }
            ],
            "response_type": "text",
            "selection_policy": "sequential"
          }
        ]
      },
      "parent": "node_1_1552421157881",
      "conditions": "#goodbyes",
      "dialog_node": "node_7_1552423595670",
      "previous_sibling": "node_10_1552423252847"
    },
    {
      "type": "standard",
      "title": "Thank you",
      "output": {
        "generic": [
          {
            "values": [
              {
                "text": "You're welcome, $name. Please let me know if you need anything else."
              },
              {
                "text": "My pleasure, $name."
              },
              {
                "text": "No problem, $name. Let me know if there is anything else I can help with."
              },
              {
                "text": "I aim to please. 😊"
              }
            ],
            "response_type": "text",
            "selection_policy": "random"
          }
        ]
      },
      "parent": "node_1_1552421157881",
      "conditions": "#thank_you",
      "dialog_node": "node_10_1552423252847",
      "previous_sibling": "node_7_1552421220373"
    },
    {
      "type": "standard",
      "title": "Greetings",
      "output": {
        "generic": [
          {
            "values": [
              {
                "text": "Hi $name. How can I help you?"
              },
              {
                "text": "Hello $name. How may I assist you today?"
              },
              {
                "text": "Hi $name. What can I help you with?"
              }
            ],
            "response_type": "text",
            "selection_policy": "sequential"
          }
        ]
      },
      "parent": "node_1_1552421157881",
      "conditions": "#greetings",
      "dialog_node": "node_7_1552421220373"
    },
    {
      "type": "event_handler",
      "output": {},
      "parent": "slot_9_1568500244008",
      "event_name": "focus",
      "dialog_node": "handler_4_1568500244020",
      "previous_sibling": "handler_7_1568500244020"
    },
    {
      "type": "event_handler",
      "parent": "slot_9_1568500244008",
      "context": {
        "city": "@location"
      },
      "conditions": "@location",
      "event_name": "input",
      "dialog_node": "handler_7_1568500244020"
    },
    {
      "type": "event_handler",
      "output": {},
      "parent": "slot_10_1568501955922",
      "event_name": "focus",
      "dialog_node": "handler_3_1568501955965",
      "previous_sibling": "handler_10_1568501955965"
    },
    {
      "type": "event_handler",
      "parent": "slot_10_1568501955922",
      "context": {
        "city": "@location"
      },
      "conditions": "@location",
      "event_name": "input",
      "dialog_node": "handler_10_1568501955965"
    },
    {
      "type": "response_condition",
      "title": "response_5_1568502297470",
      "output": {
        "text": {
          "values": [
            "Our Lince drugstore is located at 230 Martin St."
          ],
          "selection_policy": "sequential"
        }
      },
      "parent": "node_1_1552502698535",
      "conditions": "$city:Lince",
      "dialog_node": "response_5_1568502297470",
      "previous_sibling": "response_9_1568502104576"
    },
    {
      "type": "slot",
      "parent": "node_1_1552502698535",
      "variable": "$city",
      "dialog_node": "slot_10_1568501955922",
      "previous_sibling": "response_7_1568502570745"
    },
    {
      "type": "response_condition",
      "title": "response_10_1568502342737",
      "output": {
        "text": {
          "values": [
            "Our Surco drugstore is on the second floor of the CF Chinook Centre, located at 6455 Macleod Trail."
          ],
          "selection_policy": "sequential"
        }
      },
      "parent": "node_1_1552502698535",
      "conditions": "$city:Surco",
      "dialog_node": "response_10_1568502342737",
      "previous_sibling": "response_5_1568502297470"
    },
    {
      "type": "response_condition",
      "title": "response_7_1568502385357",
      "output": {
        "text": {
          "values": [
            "Our Breña  drugstore located at 300 Hasting St E."
          ],
          "selection_policy": "sequential"
        }
      },
      "parent": "node_1_1552502698535",
      "conditions": "$city:Breña",
      "dialog_node": "response_7_1568502385357",
      "previous_sibling": "response_10_1568502342737"
    },
    {
      "type": "response_condition",
      "title": "response_7_1568502570745",
      "output": {
        "text": {
          "values": [
            "Our Locations are listed on <a href=\"https://example.org/locations/\">our locations page</a>."
          ],
          "selection_policy": "sequential"
        }
      },
      "parent": "node_1_1552502698535",
      "conditions": "true",
      "dialog_node": "response_7_1568502570745",
      "previous_sibling": "response_2_1568502534126"
    },
    {
      "type": "response_condition",
      "title": "response_2_1568502534126",
      "output": {
        "text": {
          "values": [
            "Unfortunately, we don’t have a store in @sys-location. 🙁 To date, we have stores in Toronto, Montreal, Calgary, and Vancouver."
          ],
          "selection_policy": "sequential"
        }
      },
      "parent": "node_1_1552502698535",
      "conditions": "@sys-location",
      "dialog_node": "response_2_1568502534126",
      "previous_sibling": "response_7_1568502385357"
    },
    {
      "type": "response_condition",
      "title": "response_9_1568502104576",
      "output": {
        "text": {
          "values": [
            "Our Molina  drugstore is located at 123 Warden Avenue."
          ],
          "selection_policy": "sequential"
        }
      },
      "parent": "node_1_1552502698535",
      "conditions": "$city:Molina",
      "dialog_node": "response_9_1568502104576"
    },
    {
      "type": "response_condition",
      "title": "response_10_1568501690095",
      "output": {
        "text": {
          "values": [
            "Our hours of operations are listed on <a href=\"https://example.org/hours/\">our Hours page</a>."
          ],
          "selection_policy": "sequential"
        }
      },
      "parent": "node_9_1552496805719",
      "conditions": "true",
      "dialog_node": "response_10_1568501690095",
      "previous_sibling": "response_8_1568501654095"
    },
    {
      "type": "response_condition",
      "title": "response_10_1568496146627",
      "output": {
        "text": {
          "values": [
            "Our Surco store is open Mon to Sa"
          ],
          "selection_policy": "sequential"
        }
      },
      "parent": "node_9_1552496805719",
      "conditions": "$city:Surco",
      "dialog_node": "response_10_1568496146627",
      "previous_sibling": "response_7_1568496104481"
    },
    {
      "type": "response_condition",
      "title": "response_1_1568496042951",
      "output": {
        "text": {
          "values": [
            "Our Molina drugs is open Mon to Sa"
          ],
          "selection_policy": "sequential"
        }
      },
      "parent": "node_9_1552496805719",
      "conditions": "$city:Molina",
      "dialog_node": "response_1_1568496042951",
      "previous_sibling": "slot_9_1568500244008"
    },
    {
      "type": "response_condition",
      "title": "response_8_1568496181630",
      "output": {
        "text": {
          "values": [
            "Our Breña store is open Mon to Fri"
          ],
          "selection_policy": "sequential"
        }
      },
      "parent": "node_9_1552496805719",
      "conditions": "$city:Breña",
      "dialog_node": "response_8_1568496181630",
      "previous_sibling": "response_10_1568496146627"
    },
    {
      "type": "response_condition",
      "title": "response_7_1568496104481",
      "output": {
        "text": {
          "values": [
            "our Lince store is open Mon to fri"
          ],
          "selection_policy": "sequential"
        }
      },
      "parent": "node_9_1552496805719",
      "conditions": "$city:Lince",
      "dialog_node": "response_7_1568496104481",
      "previous_sibling": "response_1_1568496042951"
    },
    {
      "type": "response_condition",
      "title": "response_8_1568501654095",
      "output": {
        "text": {
          "values": [
            "Unfortunately, we don’t have a drugstore in @sys-location. 🙁 To date, we have drugstores in Molina, Lince, Surco, Breña."
          ],
          "selection_policy": "sequential"
        }
      },
      "parent": "node_9_1552496805719",
      "conditions": "@sys-location",
      "dialog_node": "response_8_1568501654095",
      "previous_sibling": "response_8_1568496181630"
    },
    {
      "type": "slot",
      "parent": "node_9_1552496805719",
      "variable": "$city",
      "dialog_node": "slot_9_1568500244008"
    },
    {
      "type": "frame",
      "title": "Drugs Recommendation",
      "metadata": {
        "_customization": {
          "mcr": true
        }
      },
      "conditions": "#drugs_recommendations",
      "digress_in": "returns",
      "dialog_node": "node_10_1568493963282",
      "digress_out": "allow_all",
      "previous_sibling": "Welcome"
    },
    {
      "type": "frame",
      "title": "Hours of Operation",
      "metadata": {
        "_customization": {
          "mcr": true
        }
      },
      "conditions": "#hours_info",
      "digress_in": "returns",
      "dialog_node": "node_9_1552496805719",
      "digress_out": "allow_all",
      "previous_sibling": "node_10_1568493963282",
      "digress_out_slots": "not_allowed"
    },
    {
      "type": "standard",
      "title": "Anything else",
      "output": {
        "generic": [
          {
            "values": [
              {
                "text": "I didn't understand. You can try rephrasing."
              },
              {
                "text": "Can you reword your statement? I'm not understanding."
              },
              {
                "text": "I didn't get your meaning."
              },
              {
                "text": "It looks like we are not quite getting each other today. Would you like to talk to a human agent instead? If so, please contact us at 555-123-4567 or email us at support\\@example.org."
              }
            ],
            "response_type": "text",
            "selection_policy": "sequential"
          }
        ]
      },
      "conditions": "anything_else",
      "dialog_node": "Anything else",
      "previous_sibling": "node_1_1552421157881"
    },
    {
      "type": "folder",
      "title": "Chitchat",
      "dialog_node": "node_1_1552421157881",
      "previous_sibling": "node_1_1552502698535"
    },
    {
      "type": "frame",
      "title": "Location Information",
      "metadata": {
        "_customization": {
          "mcr": true
        }
      },
      "conditions": "#location_info",
      "digress_in": "returns",
      "dialog_node": "node_1_1552502698535",
      "digress_out": "allow_all",
      "previous_sibling": "node_9_1552496805719",
      "digress_out_slots": "not_allowed"
    },
    {
      "type": "standard",
      "title": "Welcome",
      "output": {
        "generic": [
          {
            "values": [
              {
                "text": "Hello. My name is Gitkats and I'm a chatbot. What name can I call you by?"
              }
            ],
            "response_type": "text",
            "selection_policy": "sequential"
          }
        ]
      },
      "conditions": "welcome",
      "dialog_node": "Welcome"
    }
  ],
  "counterexamples": [],
  "system_settings": {
    "spelling_auto_correct": true
  },
  "learning_opt_out": false,
  "name": "DrugShop Skill",
  "language": "en",
  "description": ""
}